compiler,task,threads,workers,vector-length,real,system,user
gcc,serial,1,1,200000000,86.253,85.453,0.799
intel,serial,1,1,200000000,55.833,55.192,0.622
gcc,openmp,2,1,200000000,357.858,353.523,0.899
intel,openmp,2,1,200000000,92.847,92.601,1.230
mpicc,mpi,1,2,200000000,118.418,192.875,42.916
gcc,openmp,4,1,200000000,114.274,114.602,1.112
intel,openmp,4,1,200000000,276.247,276.800,2.499
mpicc,mpi,1,4,200000000,13.568,37.284,0.722
gcc,openmp,8,1,200000000,124.799,125.158,1.339
intel,openmp,8,1,200000000,76.917,77.128,4.817
mpicc,mpi,1,8,200000000,4.901,11.071,0.445
mpicc,hybrid,2,2,200000000,57.666,113.743,1.113
mpicc,hybrid,2,4,200000000,11.242,30.895,0.848
mpicc,hybrid,2,8,200000000,2.228,4.907,0.532
mpicc,hybrid,4,2,200000000,43.779,84.323,3.001
mpicc,hybrid,4,4,200000000,20.730,50.958,2.077
mpicc,hybrid,4,8,200000000,4.168,10.476,0.737
mpicc,hybrid,8,2,200000000,33.787,66.062,1.098
mpicc,hybrid,8,4,200000000,12.594,31.679,1.887
mpicc,hybrid,8,8,200000000,1.294,2.141,1.229