compiler,task,threads,workers,vector-length,real,system,user
gcc,serial,1,1,1000000,0.013,0.007,0.003
intel,serial,1,1,1000000,0.013,0.007,0.003
gcc,openmp,8,1,1000000,0.012,0.006,0.023
intel,openmp,8,1,1000000,0.017,0.011,0.018
mpicc,hybrid,4,2,1000000,0.537,0.121,0.075
mpicc,mpi,1,8,1000000,0.498,0.161,0.136
gcc,serial,1,1,10000000,0.085,0.033,0.050
intel,serial,1,1,10000000,0.077,0.033,0.041
gcc,openmp,8,1,10000000,0.068,0.035,0.107
intel,openmp,8,1,10000000,0.074,0.041,0.123
mpicc,hybrid,4,2,10000000,0.447,0.148,0.140
mpicc,mpi,1,8,10000000,0.469,0.159,0.168
gcc,serial,1,1,200000000,86.253,85.453,0.799
intel,serial,1,1,200000000,55.833,55.192,0.622
gcc,openmp,8,1,200000000,80.184,81.007,1.338
intel,openmp,8,1,200000000,75.577,75.692,5.242
mpicc,hybrid,4,2,200000000,16.769,31.720,1.311
mpicc,mpi,1,8,200000000,2.447,5.294,0.490